0, 830503005, 1272039973, TRUE, -1.0, -1.0, 7678,228
1, 1510516031, 367105234, TRUE, 505.28325903083544, 5.634859916738966, 51336,1186
2, 21291551, 256606542, TRUE, 192.94266751177557, 2.3248922807328434, 10245,36
3, 351122923, 7535730, TRUE, 111.22588714856649, 1.4641527704438069, 4502,16
4, 784025074, 1049868519, TRUE, 267.9852512355414, 3.0123267608817748, 23157,91
5, 310158916, 26818013, TRUE, -1.0, -1.0, 7678,29
6, 1076870201, 100131519, TRUE, 124.92305866275532, 1.461813778200056, 888,2
7, 286417186, 387265870, TRUE, -1.0, -1.0, 94279,355
8, 445586, 36242702, TRUE, 717.2136288651033, 8.427976120500633, 53441,308
9, 338440529, 9593581, TRUE, 87.46201585512289, 1.5968255734242158, 10132,39
10, 525168333, 28091454, TRUE, 361.80545301860013, 4.78349675767654, 20474,84
11, 17406884, 363879, TRUE, 358.31059110318836, 4.639805947998393, 20423,87
12, 30631836, 29795575, TRUE, 342.6523416349778, 3.973093018544946, 30920,134
13, 324537719, 768562929, TRUE, 44.079759296828975, 0.8436822800216391, 2537,9
14, 310651040, 253910114, TRUE, 189.61810293425526, 1.91402078225799, 12849,52
15, 928132202, 48751770, TRUE, 152.8142318234716, 2.480404889533194, 14198,62
16, 521574571, 25258671, TRUE, -1.0, -1.0, 7678,32
17, 1398416950, 434471319, TRUE, -1.0, -1.0, 94279,388
18, 9695990, 243775764, TRUE, 186.9624867483411, 2.487900576503735, 13170,46
19, 26955471, 424857, TRUE, 552.2012823792319, 7.060555471202515, 54265,267
20, 243741241, 9709789, TRUE, 193.06593214621364, 3.0344299058406516, 24488,106
21, 456190832, 3690909, TRUE, 350.23229289539574, 3.880170767957607, 40719,217
22, 10310553, 18161338, TRUE, -1.0, -1.0, 94279,437
23, 290650, 738840810, TRUE, -1.0, -1.0, 94279,416
24, 344711775, 21697555, TRUE, 82.65642805818553, 1.1876536911848692, 2430,8
25, 1060488958, 20938406, TRUE, 387.4021882002194, 4.242261086969107, 35011,140
26, 289258980, 399343667, TRUE, 625.6051996424271, 7.289708474730303, 38878,161
27, 258639256, 1320934643, TRUE, 450.966496864562, 5.778209192279105, 12848,46
28, 1246083738, 28832273, TRUE, 245.09239589521388, 3.5490739100235063, 20733,79
29, 1248244781, 253615326, TRUE, 49.20284640106114, 0.7390874267940682, 404,1
30, 29786641, 20915242, TRUE, 274.2268686536462, 4.240567935464495, 5106,15
31, 1498792185, 1299605695, TRUE, 71.74264519499228, 0.8502140464560927, 4161,16
32, 27462973, 569506, TRUE, 106.37800863079215, 1.146286615583469, 2827,10
33, 746713679, 248780953, TRUE, 85.65723123948253, 0.8113917192285394, 1898,7
34, 248002729, 39006653, TRUE, -1.0, -1.0, 94279,375
35, 303541307, 49262935, TRUE, 335.47714637370336, 3.578727660073075, 30741,124
36, 14354414, 821884269, TRUE, 205.6650513656645, 2.379025996088068, 10617,41
37, 2122993, 25310809, TRUE, 713.3510523424129, 8.143991743070696, 63192,261
38, 25760191, 1481372128, TRUE, 68.09661063226123, 0.9449551625971633, 4046,13
39, 9920444, 254957909, TRUE, 204.29609592094818, 2.711286496410064, 18304,70
40, 31193581, 282226268, TRUE, 708.7483977642191, 8.222837331880736, 53101,267
41, 359263362, 1056672076, TRUE, 316.1915749612663, 3.858936245698194, 29029,115
42, 950151614, 81718501, TRUE, 343.1551257971224, 3.878458099264671, 35663,143
43, 837466297, 294391, TRUE, 205.7924650257218, 2.6330723214986045, 19912,79
44, 1270957231, 13800648, TRUE, 306.0064146547817, 3.498837191242814, 22499,84
45, 18040107, 1470753803, TRUE, 237.84447995171678, 2.7828620710509018, 26901,108
46, 21715027, 21419350, TRUE, 284.02035696131605, 3.4760600369909462, 16789,60
47, 1141958966, 1431410631, TRUE, 79.48929321886541, 1.0748039643886689, 6407,24
48, 32097711, 255429504, TRUE, 324.0489080897771, 4.457440166927573, 19627,71
49, 26660959, 1529270514, TRUE, 274.74908457090885, 2.5279685483712138, 9443,35
50, 27145770, 355487, TRUE, 202.31810876376284, 2.401993161463687, 12380,51
51, 1014186, 279266092, TRUE, 206.12726750471586, 2.2712828984577627, 13690,50
52, 45350713, 248098549, TRUE, 883.8703024480882, 10.847082845474334, 60088,247
53, 458731354, 636063526, TRUE, 302.7383287663944, 3.291857115378281, 31995,138
54, 25608420, 264258340, TRUE, 103.82887513516077, 1.6236984239185814, 6651,25
55, 248631320, 240762577, TRUE, 323.29904792509257, 4.3562259465458855, 19895,81
56, 109887, 1469977579, TRUE, 209.0650188860661, 2.1872949497189853, 15392,62
57, 1002563923, 607011, TRUE, 251.09891707912533, 2.5421525508616383, 13474,55
58, 26449422, 308233869, TRUE, 82.99259499703312, 0.8618340541333548, 457,1
59, 25609422, 512460, TRUE, 170.3728438465664, 2.0571619747797314, 16035,58
60, 1221958496, 27229321, TRUE, 289.8783415681635, 2.8975791915958, 10132,42
61, 249188607, 534403974, TRUE, 192.3140834461226, 3.1935568072866367, 5789,23
62, 30484858, 9832491, TRUE, -1.0, -1.0, 7678,33
63, 330984519, 12088070, TRUE, 193.6896817214694, 1.8828425789049847, 5985,22
64, 697425527, 317462953, TRUE, 246.16937945673277, 2.6050841166819096, 7500,27
65, 1035458596, 59778000, TRUE, 645.7660654255736, 7.894576107248197, 77548,338
66, 616726453, 818375053, TRUE, -1.0, -1.0, 94279,357
67, 7651955, 696697193, TRUE, 417.6812458864955, 5.30670961453919, 24830,94
68, 686557035, 124290973, TRUE, 496.05386908841274, 6.1772438292726735, 45347,187
69, 21548409, 236452, TRUE, 387.97499999502395, 5.249451798923959, 9780,36
70, 36139347, 727708576, TRUE, 204.1777873719532, 3.577472410415849, 12297,40
71, 720832, 362905839, TRUE, -1.0, -1.0, 94279,365
72, 419886946, 206233977, TRUE, 400.17726806226244, 5.172379611683622, 56908,241
73, 823834, 408253, TRUE, 625.0166071383607, 7.372357402461062, 34011,137
74, 16781221, 400834, TRUE, 200.11993979675833, 2.2937931976955537, 15755,62
75, 60282502, 673845574, TRUE, 125.50823845120647, 1.7858855112619731, 9909,40
76, 31082001, 539418851, TRUE, 899.1089672996698, 11.05274486868848, 91250,393
77, 25915779, 292187, TRUE, 22.0946492690427, 0.44523128593847117, 2621,11
78, 35738701, 1139750417, TRUE, 600.819916932926, 7.576681213226208, 17589,62
79, 585392, 20940342, TRUE, 309.36970941624224, 2.907586100464345, 13419,52
80, 12774759, 243900531, TRUE, 513.7701974765076, 5.029736087510673, 37313,152
81, 392366513, 1392201009, TRUE, 77.63260521048761, 1.400414588359563, 1205,4
82, 1056672099, 1016685820, TRUE, 436.89887024459796, 4.938667188130196, 45831,195
83, 680365, 32922303, TRUE, 729.432301908261, 8.410126663709041, 63605,291
84, 361691289, 1541607994, TRUE, 122.46995834374712, 1.2926727358014771, 6356,22
85, 673594, 247083294, TRUE, 680.1594829646939, 7.728719014166675, 75504,322
86, 203998, 71151677, TRUE, 183.44761213783576, 1.9822471410487466, 10681,38
87, 30174387, 22952187, TRUE, 395.45867508116413, 5.127655422482828, 47007,185
88, 389466304, 347402897, TRUE, -1.0, -1.0, 94279,393
89, 477085263, 735149148, TRUE, 371.48331982807144, 4.331665472069332, 49946,216
90, 290762687, 32037872, TRUE, 247.05282742462697, 2.299425740838131, 15747,63
91, 926864, 2388079, TRUE, -1.0, -1.0, 94279,347
92, 1331472262, 668008, TRUE, 241.836866633311, 3.4327570730905745, 7592,28
93, 1141002340, 264573649, TRUE, 274.1179754730551, 2.8295152714280136, 22534,100
94, 1169109302, 36605633, TRUE, 92.5670472996518, 1.8149340185621399, 1649,5
95, 27476914, 13986279, TRUE, 205.24947437462, 2.191830093520621, 14045,47
96, 509881803, 244133753, TRUE, -1.0, -1.0, 7678,33
97, 26735400, 26624881, TRUE, 112.11208531312445, 1.204870047209728, 2593,8
98, 336124562, 27667562, TRUE, 193.18679169354053, 2.0099557840006588, 6291,22
99, 21494361, 570833, TRUE, 655.4884649787972, 7.751517430270179, 80215,372
